IS415-GAA - Take-home Exercise 02
…
Code

dengue_count <- dengue_agg_sf

Code

dengue_count

Simple feature collection with 258 features and 2 fields
Geometry type: POLYGON
Dimension:     XY
Bounding box:  xmin: 120.0627 ymin: 22.89401 xmax: 120.2925 ymax: 23.09144
Geodetic CRS:  TWD97
# A tibble: 258 × 3
# Groups:   VILLENG [249]
   VILLENG     total_cases                                              geometry
   <chr>             <int>                                         <POLYGON [°]>
 1 Andong Vil.          67 ((120.2164 23.0404, 120.2154 23.04033, 120.2153 23.0…
 2 Anfu Vil.           311 ((120.1932 23.0294, 120.1929 23.02938, 120.1926 23.0…
 3 Anhe Vil.            73 ((120.2258 23.04424, 120.2219 23.03862, 120.2219 23.…
 4 Ankang Vil.          97 ((120.2269 23.01413, 120.2274 23.01331, 120.2277 23.…
 5 Anqing Vil.         111 ((120.2113 23.04414, 120.2111 23.04413, 120.2108 23.…
 6 Anshun Vil.          34 ((120.2136 23.05601, 120.2136 23.05586, 120.2135 23.…
 7 Anxi Vil.           110 ((120.2123 23.03689, 120.212 23.03685, 120.2121 23.0…
 8 Bao'an Vil.          19 ((120.2304 22.93544, 120.2301 22.93511, 120.2301 22.…
 9 Beihua Vil.          82 ((120.2034 23.00257, 120.2032 23.0022, 120.2028 23.0…
10 Beimen Vil.         249 ((120.2176 23.02032, 120.2173 23.02013, 120.2172 23.…
# ℹ 248 more rows
…
Code

wm_q

Simple feature collection with 249 features and 4 fields
Geometry type: GEOMETRY
Dimension:     XY
Bounding box:  xmin: 120.0627 ymin: 22.89401 xmax: 120.2925 ymax: 23.09144
Geodetic CRS:  TWD97
# A tibble: 249 × 5
   VILLENG.x   total_cases                                  geometry nb    wt   
 * <chr>             <int>                             <POLYGON [°]> <nb>  <lis>
 1 Andong Vil.          67 ((120.2164 23.0404, 120.2154 23.04033, 1… <int> <dbl>
 2 Anfu Vil.           311 ((120.1932 23.0294, 120.1929 23.02938, 1… <int> <dbl>
 3 Anhe Vil.            73 ((120.2258 23.04424, 120.2219 23.03862, … <int> <dbl>
 4 Ankang Vil.          97 ((120.2269 23.01413, 120.2274 23.01331, … <int> <dbl>
 5 Anqing Vil.         111 ((120.2113 23.04414, 120.2111 23.04413, … <int> <dbl>
 6 Anshun Vil.          34 ((120.2136 23.05601, 120.2136 23.05586, … <int> <dbl>
 7 Anxi Vil.           110 ((120.2123 23.03689, 120.212 23.03685, 1… <int> <dbl>
 8 Bao'an Vil.          19 ((120.2304 22.93544, 120.2301 22.93511, … <int> <dbl>
 9 Beihua Vil.          82 ((120.2034 23.00257, 120.2032 23.0022, 1… <int> <dbl>
10 Beimen Vil.         249 ((120.2176 23.02032, 120.2173 23.02013, … <int> <dbl>
# ℹ 239 more rows
…
